{
  "project_info": {
    "project_number": "170093893117",
    "firebase_url": "https://pinipol-e1ec1.firebaseio.com",
    "project_id": "pinipol-e1ec1",
    "storage_bucket": "pinipol-e1ec1.appspot.com"
  },
  "client": [
    {
      "client_info": {
        "mobilesdk_app_id": "1:170093893117:android:a3bd1079d1db3a8093f594",
        "android_client_info": {
          "package_name": "com.pinipoll"
        }
      },
      "oauth_client": [
        {
          "client_id": "170093893117-kh3mmipi815jhh6for523i6g5dg0va1k.apps.googleusercontent.com",
          "client_type": 1,
          "android_info": {
            "package_name": "com.pinipoll",
            "certificate_hash": "5e8f16062ea3cd2c4a0d547876baa6f38cabf625"
          }
        },
        {
          "client_id": "170093893117-6qa1tfbtbl0qk9hgfmbl33m3ad74r5s2.apps.googleusercontent.com",
          "client_type": 1,
          "android_info": {
            "package_name": "com.pinipoll",
            "certificate_hash": "b2607ecb676fb7e94184337639f05669bcde12b3"
          }
        },
        {
          "client_id": "170093893117-9db4bt4b56mmribad5a06rdkvrckghkf.apps.googleusercontent.com",
          "client_type": 1,
          "android_info": {
            "package_name": "com.pinipoll",
            "certificate_hash": "d309fe8464d4b78b4a61130f0ea0465c60703e44"
          }
        },
        {
          "client_id": "170093893117-564tijm3sdnkqu79n1oqdhav2lc803ad.apps.googleusercontent.com",
          "client_type": 3
        }
      ],
      "api_key": [
        {
          "current_key": "AIzaSyAKt9yFrXAi-ZRSbeZW37EcRVBNju-LcR0"
        }
      ],
      "services": {
        "appinvite_service": {
          "other_platform_oauth_client": [
            {
              "client_id": "170093893117-abskqm4b4io6oau3ce9ai4l5bh3raikr.apps.googleusercontent.com",
              "client_type": 3
            },
            {
              "client_id": "170093893117-rj95qreeppt2tntpfthdahisi65i782l.apps.googleusercontent.com",
              "client_type": 2,
              "ios_info": {
                "bundle_id": "org.reactjs.native.example.Pinipol"
              }
            }
          ]
        }
      }
    }
  ],
  "configuration_version": "1"
}